<?xml version="1.0" encoding="UTF-8"?>
<svg width="100" height="100" version="1.1" viewBox="0 0 26.458 26.458" xmlns="http://www.w3.org/2000/svg" xmlns:cc="http://creativecommons.org/ns#" xmlns:dc="http://purl.org/dc/elements/1.1/" xmlns:rdf="http://www.w3.org/1999/02/22-rdf-syntax-ns#">
<metadata>
<rdf:RDF>
<cc:Work rdf:about="">
<dc:format>image/svg+xml</dc:format>
<dc:type rdf:resource="http://purl.org/dc/dcmitype/StillImage"/>
</cc:Work>
</rdf:RDF>
</metadata>
<circle cx="13.229" cy="13.229" r="9.9482" fill="#5fbeb8" stroke="#000" stroke-linecap="round" stroke-width="1.5875" style="paint-order:normal"/>
<path d="m17.859 15.379v-6.9452c0-0.27491-0.22118-0.49609-0.49609-0.49609h-6.7799c-1.0955 0-1.9844 0.88882-1.9844 1.9844v6.6145c0 1.0955 0.88882 1.9844 1.9844 1.9844h6.7799c0.27492 0 0.49609-0.22118 0.49609-0.49609v-0.33072c0-0.15502-0.07234-0.29558-0.18396-0.38654-0.08682-0.31832-0.08682-1.2257 0-1.5441 0.11162-0.08888 0.18396-0.22944 0.18396-0.38447zm-6.6145-4.6715c0-0.06821 0.05581-0.12402 0.12402-0.12402h4.3821c0.06821 0 0.12402 0.05581 0.12402 0.12402v0.41341c0 0.06822-0.05581 0.12402-0.12402 0.12402h-4.3821c-0.06821 0-0.12402-0.05581-0.12402-0.12402zm0 1.3229c0-0.06821 0.05581-0.12402 0.12402-0.12402h4.3821c0.06821 0 0.12402 0.05581 0.12402 0.12402v0.41341c0 0.06821-0.05581 0.12402-0.12402 0.12402h-4.3821c-0.06821 0-0.12402-0.05582-0.12402-0.12402zm5.2379 5.1676h-5.8993c-0.36586 0-0.66145-0.29559-0.66145-0.66145 0-0.3638 0.29765-0.66145 0.66145-0.66145h5.8993c-0.03926 0.35346-0.03926 0.96944 0 1.3229z" fill="currentColor" stroke-width=".26458"/>
</svg>
